[
  {
    "date": "14-12-2021",
    "centers": {
      "a": 10,
      "b": 5,
      "c": 15,
      "d": 25,
      "e": 20
    }
  },
  {
    "date": "15-12-2021",
    "centers": {
      "a": 0,
      "b": 25
    }
  }
]